%YAML 1.1
%TAG !u! tag:unity3d.com,2011:
--- !u!114 &11400000
MonoBehaviour:
  m_ObjectHideFlags: 0
  m_CorrespondingSourceObject: {fileID: 0}
  m_PrefabInstance: {fileID: 0}
  m_PrefabAsset: {fileID: 0}
  m_GameObject: {fileID: 0}
  m_Enabled: 1
  m_EditorHideFlags: 0
  m_Script: {fileID: 11500000, guid: a24239c1305617d47ac4f75efd948c11, type: 3}
  m_Name: HammerData
  m_EditorClassIdentifier: 
  type: Weapon
  cost: 500
  itemImage: {fileID: 0}
  startingState: 0
  state: 0
  poolType: 1
  weaponSkins:
  - weaponOnHand: {fileID: 3009720624732165890, guid: 2f80e3d57593a824e924f213bcd6da8e, type: 3}
    weaponSkinMaterial:
    - {fileID: 2100000, guid: 7368aa8ec637ad941a6407fa1cbe03ee, type: 2}
    - {fileID: 2100000, guid: fd22d984b94a49b45bb1fc0eead0c512, type: 2}
    handMaterial: {fileID: 2100000, guid: 7368aa8ec637ad941a6407fa1cbe03ee, type: 2}
    headMaterial: {fileID: 2100000, guid: fd22d984b94a49b45bb1fc0eead0c512, type: 2}
    skinImage: {fileID: 21300000, guid: 73c22e24f62cbca4aa2b29b4aa0ee806, type: 3}
    cost: 0
    id: 0
  - weaponOnHand: {fileID: 7995977007818458824, guid: 8c4542a07ed4bdd41bce5f48f2c3bd9b, type: 3}
    weaponSkinMaterial:
    - {fileID: 2100000, guid: b5af3f4d89a69ad4b9d690add837b8a7, type: 2}
    - {fileID: 2100000, guid: b5af3f4d89a69ad4b9d690add837b8a7, type: 2}
    handMaterial: {fileID: 2100000, guid: b5af3f4d89a69ad4b9d690add837b8a7, type: 2}
    headMaterial: {fileID: 2100000, guid: b5af3f4d89a69ad4b9d690add837b8a7, type: 2}
    skinImage: {fileID: 21300000, guid: 0d1b4cfb26c18c2479ccd08e79825e17, type: 3}
    cost: 300
    id: 1
  - weaponOnHand: {fileID: 7893355348336359792, guid: 484ad00b1394d3740a25410869755645, type: 3}
    weaponSkinMaterial:
    - {fileID: 2100000, guid: 7715a43afea82c54e9f21b0be2fe1db1, type: 2}
    - {fileID: 2100000, guid: 7715a43afea82c54e9f21b0be2fe1db1, type: 2}
    handMaterial: {fileID: 2100000, guid: 7715a43afea82c54e9f21b0be2fe1db1, type: 2}
    headMaterial: {fileID: 2100000, guid: 7715a43afea82c54e9f21b0be2fe1db1, type: 2}
    skinImage: {fileID: 21300000, guid: 487c6d941fa1f0d42a385f150f09f7e8, type: 3}
    cost: 500
    id: 2
