%YAML 1.1
%TAG !u! tag:unity3d.com,2011:
--- !u!1 &7893355348336359792
GameObject:
  m_ObjectHideFlags: 0
  m_CorrespondingSourceObject: {fileID: 0}
  m_PrefabInstance: {fileID: 0}
  m_PrefabAsset: {fileID: 0}
  serializedVersion: 6
  m_Component:
  - component: {fileID: 7016192487545476021}
  m_Layer: 0
  m_Name: HammerSkin2
  m_TagString: Untagged
  m_Icon: {fileID: 0}
  m_NavMeshLayer: 0
  m_StaticEditorFlags: 0
  m_IsActive: 1
--- !u!4 &7016192487545476021
Transform:
  m_ObjectHideFlags: 0
  m_CorrespondingSourceObject: {fileID: 0}
  m_PrefabInstance: {fileID: 0}
  m_PrefabAsset: {fileID: 0}
  m_GameObject: {fileID: 7893355348336359792}
  m_LocalRotation: {x: 0, y: 0, z: 0, w: 1}
  m_LocalPosition: {x: 0, y: 0, z: 0}
  m_LocalScale: {x: 1, y: 1, z: 1}
  m_Children:
  - {fileID: 2809764781339178394}
  m_Father: {fileID: 0}
  m_RootOrder: 0
  m_LocalEulerAnglesHint: {x: 0, y: 0, z: 0}
--- !u!1001 &2809764781338783514
PrefabInstance:
  m_ObjectHideFlags: 0
  serializedVersion: 2
  m_Modification:
    m_TransformParent: {fileID: 7016192487545476021}
    m_Modifications:
    - target: {fileID: 100000, guid: 90389cac50942cb4ca38583e6531094a, type: 3}
      propertyPath: m_Name
      value: Hammer
      objectReference: {fileID: 0}
    - target: {fileID: 400000, guid: 90389cac50942cb4ca38583e6531094a, type: 3}
      propertyPath: m_RootOrder
      value: 0
      objectReference: {fileID: 0}
    - target: {fileID: 400000, guid: 90389cac50942cb4ca38583e6531094a, type: 3}
      propertyPath: m_LocalPosition.x
      value: -0
      objectReference: {fileID: 0}
    - target: {fileID: 400000, guid: 90389cac50942cb4ca38583e6531094a, type: 3}
      propertyPath: m_LocalPosition.y
      value: -0.148
      objectReference: {fileID: 0}
    - target: {fileID: 400000, guid: 90389cac50942cb4ca38583e6531094a, type: 3}
      propertyPath: m_LocalPosition.z
      value: 0
      objectReference: {fileID: 0}
    - target: {fileID: 400000, guid: 90389cac50942cb4ca38583e6531094a, type: 3}
      propertyPath: m_LocalRotation.w
      value: 1
      objectReference: {fileID: 0}
    - target: {fileID: 400000, guid: 90389cac50942cb4ca38583e6531094a, type: 3}
      propertyPath: m_LocalRotation.x
      value: 0.00000008146034
      objectReference: {fileID: 0}
    - target: {fileID: 400000, guid: 90389cac50942cb4ca38583e6531094a, type: 3}
      propertyPath: m_LocalRotation.y
      value: 0
      objectReference: {fileID: 0}
    - target: {fileID: 400000, guid: 90389cac50942cb4ca38583e6531094a, type: 3}
      propertyPath: m_LocalRotation.z
      value: -0
      objectReference: {fileID: 0}
    - target: {fileID: 400000, guid: 90389cac50942cb4ca38583e6531094a, type: 3}
      propertyPath: m_LocalEulerAnglesHint.x
      value: 0
      objectReference: {fileID: 0}
    - target: {fileID: 400000, guid: 90389cac50942cb4ca38583e6531094a, type: 3}
      propertyPath: m_LocalEulerAnglesHint.y
      value: 0
      objectReference: {fileID: 0}
    - target: {fileID: 400000, guid: 90389cac50942cb4ca38583e6531094a, type: 3}
      propertyPath: m_LocalEulerAnglesHint.z
      value: 0
      objectReference: {fileID: 0}
    - target: {fileID: 2300000, guid: 90389cac50942cb4ca38583e6531094a, type: 3}
      propertyPath: m_Materials.Array.data[0]
      value: 
      objectReference: {fileID: 2100000, guid: 7715a43afea82c54e9f21b0be2fe1db1, type: 2}
    - target: {fileID: 2300000, guid: 90389cac50942cb4ca38583e6531094a, type: 3}
      propertyPath: m_Materials.Array.data[1]
      value: 
      objectReference: {fileID: 2100000, guid: 7715a43afea82c54e9f21b0be2fe1db1, type: 2}
    m_RemovedComponents: []
  m_SourcePrefab: {fileID: 100100000, guid: 90389cac50942cb4ca38583e6531094a, type: 3}
--- !u!4 &2809764781339178394 stripped
Transform:
  m_CorrespondingSourceObject: {fileID: 400000, guid: 90389cac50942cb4ca38583e6531094a, type: 3}
  m_PrefabInstance: {fileID: 2809764781338783514}
  m_PrefabAsset: {fileID: 0}
