%YAML 1.1
%TAG !u! tag:unity3d.com,2011:
--- !u!114 &11400000
MonoBehaviour:
  m_ObjectHideFlags: 0
  m_CorrespondingSourceObject: {fileID: 0}
  m_PrefabInstance: {fileID: 0}
  m_PrefabAsset: {fileID: 0}
  m_GameObject: {fileID: 0}
  m_Enabled: 1
  m_EditorHideFlags: 0
  m_Script: {fileID: 11500000, guid: 07329876f493dc548ab8c946efec8379, type: 3}
  m_Name: Chambi
  m_EditorClassIdentifier: 
  type: PantSkin
  id: 2
  cost: 200
  itemImage: {fileID: 5884401077377485920, guid: 1125e6ffa5244924cbd9460f4894c46f, type: 3}
  skin: {fileID: 2100000, guid: bd5e7eac2a85c0d449e1ad9c3e15590d, type: 2}
