%YAML 1.1
%TAG !u! tag:unity3d.com,2011:
--- !u!114 &11400000
MonoBehaviour:
  m_ObjectHideFlags: 0
  m_CorrespondingSourceObject: {fileID: 0}
  m_PrefabInstance: {fileID: 0}
  m_PrefabAsset: {fileID: 0}
  m_GameObject: {fileID: 0}
  m_Enabled: 1
  m_EditorHideFlags: 0
  m_Script: {fileID: 11500000, guid: 07329876f493dc548ab8c946efec8379, type: 3}
  m_Name: Dabao
  m_EditorClassIdentifier: 
  type: PantSkin
  id: 4
  cost: 500
  itemImage: {fileID: 5884401077377485920, guid: 384910dc465be51499d615cd5608ede8, type: 3}
  skin: {fileID: 2100000, guid: 4e62aff1bbc92fe4d841bc1ba78fbdff, type: 2}
