%YAML 1.1
%TAG !u! tag:unity3d.com,2011:
--- !u!114 &11400000
MonoBehaviour:
  m_ObjectHideFlags: 0
  m_CorrespondingSourceObject: {fileID: 0}
  m_PrefabInstance: {fileID: 0}
  m_PrefabAsset: {fileID: 0}
  m_GameObject: {fileID: 0}
  m_Enabled: 1
  m_EditorHideFlags: 0
  m_Script: {fileID: 11500000, guid: 07329876f493dc548ab8c946efec8379, type: 3}
  m_Name: Rainbow
  m_EditorClassIdentifier: 
  type: PantSkin
  id: 7
  cost: 700
  itemImage: {fileID: 5884401077377485920, guid: cd6b75d40202dbb4fa806ca1e985421c, type: 3}
  skin: {fileID: 2100000, guid: 0fd3818cc72a99e499ac07bf4a24366b, type: 2}
