%YAML 1.1
%TAG !u! tag:unity3d.com,2011:
--- !u!1001 &1308966607297815824
PrefabInstance:
  m_ObjectHideFlags: 0
  serializedVersion: 2
  m_Modification:
    m_TransformParent: {fileID: 9211007320699447178}
    m_Modifications:
    - target: {fileID: -4216859302048453862, guid: 1fec1600e289b98468c51e0c2e88c3d6, type: 3}
      propertyPath: m_RootOrder
      value: 1
      objectReference: {fileID: 0}
    - target: {fileID: -4216859302048453862, guid: 1fec1600e289b98468c51e0c2e88c3d6, type: 3}
      propertyPath: m_LocalScale.x
      value: 45
      objectReference: {fileID: 0}
    - target: {fileID: -4216859302048453862, guid: 1fec1600e289b98468c51e0c2e88c3d6, type: 3}
      propertyPath: m_LocalScale.y
      value: 45
      objectReference: {fileID: 0}
    - target: {fileID: -4216859302048453862, guid: 1fec1600e289b98468c51e0c2e88c3d6, type: 3}
      propertyPath: m_LocalScale.z
      value: 45
      objectReference: {fileID: 0}
    - target: {fileID: -4216859302048453862, guid: 1fec1600e289b98468c51e0c2e88c3d6, type: 3}
      propertyPath: m_LocalPosition.x
      value: -0.009
      objectReference: {fileID: 0}
    - target: {fileID: -4216859302048453862, guid: 1fec1600e289b98468c51e0c2e88c3d6, type: 3}
      propertyPath: m_LocalPosition.y
      value: 0.162
      objectReference: {fileID: 0}
    - target: {fileID: -4216859302048453862, guid: 1fec1600e289b98468c51e0c2e88c3d6, type: 3}
      propertyPath: m_LocalPosition.z
      value: -0.041
      objectReference: {fileID: 0}
    - target: {fileID: -4216859302048453862, guid: 1fec1600e289b98468c51e0c2e88c3d6, type: 3}
      propertyPath: m_LocalRotation.w
      value: 1
      objectReference: {fileID: 0}
    - target: {fileID: -4216859302048453862, guid: 1fec1600e289b98468c51e0c2e88c3d6, type: 3}
      propertyPath: m_LocalRotation.x
      value: 0
      objectReference: {fileID: 0}
    - target: {fileID: -4216859302048453862, guid: 1fec1600e289b98468c51e0c2e88c3d6, type: 3}
      propertyPath: m_LocalRotation.y
      value: -0
      objectReference: {fileID: 0}
    - target: {fileID: -4216859302048453862, guid: 1fec1600e289b98468c51e0c2e88c3d6, type: 3}
      propertyPath: m_LocalRotation.z
      value: -0
      objectReference: {fileID: 0}
    - target: {fileID: -4216859302048453862, guid: 1fec1600e289b98468c51e0c2e88c3d6, type: 3}
      propertyPath: m_LocalEulerAnglesHint.x
      value: 0
      objectReference: {fileID: 0}
    - target: {fileID: -4216859302048453862, guid: 1fec1600e289b98468c51e0c2e88c3d6, type: 3}
      propertyPath: m_LocalEulerAnglesHint.y
      value: 0
      objectReference: {fileID: 0}
    - target: {fileID: -4216859302048453862, guid: 1fec1600e289b98468c51e0c2e88c3d6, type: 3}
      propertyPath: m_LocalEulerAnglesHint.z
      value: 0
      objectReference: {fileID: 0}
    - target: {fileID: -927199367670048503, guid: 1fec1600e289b98468c51e0c2e88c3d6, type: 3}
      propertyPath: m_Name
      value: head_angle
      objectReference: {fileID: 0}
    m_RemovedComponents: []
  m_SourcePrefab: {fileID: 100100000, guid: 1fec1600e289b98468c51e0c2e88c3d6, type: 3}
--- !u!1001 &1971970382779380098
PrefabInstance:
  m_ObjectHideFlags: 0
  serializedVersion: 2
  m_Modification:
    m_TransformParent: {fileID: 7872734452430891663}
    m_Modifications:
    - target: {fileID: -8419023264434571601, guid: 913e454a8bdbd9c48b9b1adebdb4366a, type: 3}
      propertyPath: m_LocalPosition.x
      value: 0
      objectReference: {fileID: 0}
    - target: {fileID: -8419023264434571601, guid: 913e454a8bdbd9c48b9b1adebdb4366a, type: 3}
      propertyPath: m_LocalPosition.y
      value: 0
      objectReference: {fileID: 0}
    - target: {fileID: -8419023264434571601, guid: 913e454a8bdbd9c48b9b1adebdb4366a, type: 3}
      propertyPath: m_LocalPosition.z
      value: 0
      objectReference: {fileID: 0}
    - target: {fileID: -8040700482841167191, guid: 913e454a8bdbd9c48b9b1adebdb4366a, type: 3}
      propertyPath: m_LocalPosition.x
      value: 0
      objectReference: {fileID: 0}
    - target: {fileID: -8040700482841167191, guid: 913e454a8bdbd9c48b9b1adebdb4366a, type: 3}
      propertyPath: m_LocalPosition.y
      value: 0
      objectReference: {fileID: 0}
    - target: {fileID: -8040700482841167191, guid: 913e454a8bdbd9c48b9b1adebdb4366a, type: 3}
      propertyPath: m_LocalPosition.z
      value: 0
      objectReference: {fileID: 0}
    - target: {fileID: -4216859302048453862, guid: 913e454a8bdbd9c48b9b1adebdb4366a, type: 3}
      propertyPath: m_RootOrder
      value: 3
      objectReference: {fileID: 0}
    - target: {fileID: -4216859302048453862, guid: 913e454a8bdbd9c48b9b1adebdb4366a, type: 3}
      propertyPath: m_LocalScale.x
      value: 100
      objectReference: {fileID: 0}
    - target: {fileID: -4216859302048453862, guid: 913e454a8bdbd9c48b9b1adebdb4366a, type: 3}
      propertyPath: m_LocalScale.y
      value: 100
      objectReference: {fileID: 0}
    - target: {fileID: -4216859302048453862, guid: 913e454a8bdbd9c48b9b1adebdb4366a, type: 3}
      propertyPath: m_LocalScale.z
      value: 100
      objectReference: {fileID: 0}
    - target: {fileID: -4216859302048453862, guid: 913e454a8bdbd9c48b9b1adebdb4366a, type: 3}
      propertyPath: m_LocalPosition.x
      value: -0.018
      objectReference: {fileID: 0}
    - target: {fileID: -4216859302048453862, guid: 913e454a8bdbd9c48b9b1adebdb4366a, type: 3}
      propertyPath: m_LocalPosition.y
      value: -0.076
      objectReference: {fileID: 0}
    - target: {fileID: -4216859302048453862, guid: 913e454a8bdbd9c48b9b1adebdb4366a, type: 3}
      propertyPath: m_LocalPosition.z
      value: -0.408
      objectReference: {fileID: 0}
    - target: {fileID: -4216859302048453862, guid: 913e454a8bdbd9c48b9b1adebdb4366a, type: 3}
      propertyPath: m_LocalRotation.w
      value: 1
      objectReference: {fileID: 0}
    - target: {fileID: -4216859302048453862, guid: 913e454a8bdbd9c48b9b1adebdb4366a, type: 3}
      propertyPath: m_LocalRotation.x
      value: 0
      objectReference: {fileID: 0}
    - target: {fileID: -4216859302048453862, guid: 913e454a8bdbd9c48b9b1adebdb4366a, type: 3}
      propertyPath: m_LocalRotation.y
      value: 0
      objectReference: {fileID: 0}
    - target: {fileID: -4216859302048453862, guid: 913e454a8bdbd9c48b9b1adebdb4366a, type: 3}
      propertyPath: m_LocalRotation.z
      value: 0
      objectReference: {fileID: 0}
    - target: {fileID: -4216859302048453862, guid: 913e454a8bdbd9c48b9b1adebdb4366a, type: 3}
      propertyPath: m_LocalEulerAnglesHint.x
      value: 0
      objectReference: {fileID: 0}
    - target: {fileID: -4216859302048453862, guid: 913e454a8bdbd9c48b9b1adebdb4366a, type: 3}
      propertyPath: m_LocalEulerAnglesHint.y
      value: 0
      objectReference: {fileID: 0}
    - target: {fileID: -4216859302048453862, guid: 913e454a8bdbd9c48b9b1adebdb4366a, type: 3}
      propertyPath: m_LocalEulerAnglesHint.z
      value: 0
      objectReference: {fileID: 0}
    - target: {fileID: -927199367670048503, guid: 913e454a8bdbd9c48b9b1adebdb4366a, type: 3}
      propertyPath: m_Name
      value: wing
      objectReference: {fileID: 0}
    - target: {fileID: 2555942483128620423, guid: 913e454a8bdbd9c48b9b1adebdb4366a, type: 3}
      propertyPath: m_LocalPosition.x
      value: 0
      objectReference: {fileID: 0}
    - target: {fileID: 2555942483128620423, guid: 913e454a8bdbd9c48b9b1adebdb4366a, type: 3}
      propertyPath: m_LocalPosition.y
      value: 0
      objectReference: {fileID: 0}
    - target: {fileID: 2555942483128620423, guid: 913e454a8bdbd9c48b9b1adebdb4366a, type: 3}
      propertyPath: m_LocalPosition.z
      value: 0
      objectReference: {fileID: 0}
    - target: {fileID: 3513653084558502838, guid: 913e454a8bdbd9c48b9b1adebdb4366a, type: 3}
      propertyPath: m_LocalPosition.x
      value: 0
      objectReference: {fileID: 0}
    - target: {fileID: 3513653084558502838, guid: 913e454a8bdbd9c48b9b1adebdb4366a, type: 3}
      propertyPath: m_LocalPosition.y
      value: 0
      objectReference: {fileID: 0}
    - target: {fileID: 3513653084558502838, guid: 913e454a8bdbd9c48b9b1adebdb4366a, type: 3}
      propertyPath: m_LocalPosition.z
      value: 0
      objectReference: {fileID: 0}
    m_RemovedComponents: []
  m_SourcePrefab: {fileID: 100100000, guid: 913e454a8bdbd9c48b9b1adebdb4366a, type: 3}
--- !u!1001 &5744837059448658216
PrefabInstance:
  m_ObjectHideFlags: 0
  serializedVersion: 2
  m_Modification:
    m_TransformParent: {fileID: 0}
    m_Modifications:
    - target: {fileID: 254501903740841539, guid: 11b4de97e43cc67418bf44f61ee1071f, type: 3}
      propertyPath: m_Materials.Array.data[0]
      value: 
      objectReference: {fileID: 2100000, guid: 91b857e83c91ac0498fed16fc791f5a4, type: 2}
    - target: {fileID: 580465743824282819, guid: 11b4de97e43cc67418bf44f61ee1071f, type: 3}
      propertyPath: m_Name
      value: SkinSet2 Variant
      objectReference: {fileID: 0}
    - target: {fileID: 4491605450956674768, guid: 11b4de97e43cc67418bf44f61ee1071f, type: 3}
      propertyPath: m_RootOrder
      value: 0
      objectReference: {fileID: 0}
    - target: {fileID: 4491605450956674768, guid: 11b4de97e43cc67418bf44f61ee1071f, type: 3}
      propertyPath: m_LocalPosition.x
      value: 0
      objectReference: {fileID: 0}
    - target: {fileID: 4491605450956674768, guid: 11b4de97e43cc67418bf44f61ee1071f, type: 3}
      propertyPath: m_LocalPosition.y
      value: -1
      objectReference: {fileID: 0}
    - target: {fileID: 4491605450956674768, guid: 11b4de97e43cc67418bf44f61ee1071f, type: 3}
      propertyPath: m_LocalPosition.z
      value: 0
      objectReference: {fileID: 0}
    - target: {fileID: 4491605450956674768, guid: 11b4de97e43cc67418bf44f61ee1071f, type: 3}
      propertyPath: m_LocalRotation.w
      value: 1
      objectReference: {fileID: 0}
    - target: {fileID: 4491605450956674768, guid: 11b4de97e43cc67418bf44f61ee1071f, type: 3}
      propertyPath: m_LocalRotation.x
      value: -0
      objectReference: {fileID: 0}
    - target: {fileID: 4491605450956674768, guid: 11b4de97e43cc67418bf44f61ee1071f, type: 3}
      propertyPath: m_LocalRotation.y
      value: -0
      objectReference: {fileID: 0}
    - target: {fileID: 4491605450956674768, guid: 11b4de97e43cc67418bf44f61ee1071f, type: 3}
      propertyPath: m_LocalRotation.z
      value: -0
      objectReference: {fileID: 0}
    - target: {fileID: 4491605450956674768, guid: 11b4de97e43cc67418bf44f61ee1071f, type: 3}
      propertyPath: m_LocalEulerAnglesHint.x
      value: 0
      objectReference: {fileID: 0}
    - target: {fileID: 4491605450956674768, guid: 11b4de97e43cc67418bf44f61ee1071f, type: 3}
      propertyPath: m_LocalEulerAnglesHint.y
      value: 0
      objectReference: {fileID: 0}
    - target: {fileID: 4491605450956674768, guid: 11b4de97e43cc67418bf44f61ee1071f, type: 3}
      propertyPath: m_LocalEulerAnglesHint.z
      value: 0
      objectReference: {fileID: 0}
    - target: {fileID: 8964751149804858144, guid: 11b4de97e43cc67418bf44f61ee1071f, type: 3}
      propertyPath: m_Materials.Array.data[0]
      value: 
      objectReference: {fileID: 2100000, guid: fd2c51c4af7030a4b820bc9d90293733, type: 2}
    m_RemovedComponents: []
  m_SourcePrefab: {fileID: 100100000, guid: 11b4de97e43cc67418bf44f61ee1071f, type: 3}
--- !u!4 &7872734452430891663 stripped
Transform:
  m_CorrespondingSourceObject: {fileID: 2519852621870707623, guid: 11b4de97e43cc67418bf44f61ee1071f, type: 3}
  m_PrefabInstance: {fileID: 5744837059448658216}
  m_PrefabAsset: {fileID: 0}
--- !u!4 &2662685959543281471 stripped
Transform:
  m_CorrespondingSourceObject: {fileID: 7730991830360165911, guid: 11b4de97e43cc67418bf44f61ee1071f, type: 3}
  m_PrefabInstance: {fileID: 5744837059448658216}
  m_PrefabAsset: {fileID: 0}
--- !u!4 &9211007320699447178 stripped
Transform:
  m_CorrespondingSourceObject: {fileID: 3489674556220636834, guid: 11b4de97e43cc67418bf44f61ee1071f, type: 3}
  m_PrefabInstance: {fileID: 5744837059448658216}
  m_PrefabAsset: {fileID: 0}
--- !u!1001 &7288878710540819761
PrefabInstance:
  m_ObjectHideFlags: 0
  serializedVersion: 2
  m_Modification:
    m_TransformParent: {fileID: 2662685959543281471}
    m_Modifications:
    - target: {fileID: -4216859302048453862, guid: 3669165c82aa71349bdeecc61a63fd7f, type: 3}
      propertyPath: m_RootOrder
      value: 1
      objectReference: {fileID: 0}
    - target: {fileID: -4216859302048453862, guid: 3669165c82aa71349bdeecc61a63fd7f, type: 3}
      propertyPath: m_LocalScale.x
      value: 45
      objectReference: {fileID: 0}
    - target: {fileID: -4216859302048453862, guid: 3669165c82aa71349bdeecc61a63fd7f, type: 3}
      propertyPath: m_LocalScale.y
      value: 45
      objectReference: {fileID: 0}
    - target: {fileID: -4216859302048453862, guid: 3669165c82aa71349bdeecc61a63fd7f, type: 3}
      propertyPath: m_LocalScale.z
      value: 45
      objectReference: {fileID: 0}
    - target: {fileID: -4216859302048453862, guid: 3669165c82aa71349bdeecc61a63fd7f, type: 3}
      propertyPath: m_LocalPosition.x
      value: -0.033
      objectReference: {fileID: 0}
    - target: {fileID: -4216859302048453862, guid: 3669165c82aa71349bdeecc61a63fd7f, type: 3}
      propertyPath: m_LocalPosition.y
      value: 0.068
      objectReference: {fileID: 0}
    - target: {fileID: -4216859302048453862, guid: 3669165c82aa71349bdeecc61a63fd7f, type: 3}
      propertyPath: m_LocalPosition.z
      value: 0.059
      objectReference: {fileID: 0}
    - target: {fileID: -4216859302048453862, guid: 3669165c82aa71349bdeecc61a63fd7f, type: 3}
      propertyPath: m_LocalRotation.w
      value: 0.54206425
      objectReference: {fileID: 0}
    - target: {fileID: -4216859302048453862, guid: 3669165c82aa71349bdeecc61a63fd7f, type: 3}
      propertyPath: m_LocalRotation.x
      value: 0.0355713
      objectReference: {fileID: 0}
    - target: {fileID: -4216859302048453862, guid: 3669165c82aa71349bdeecc61a63fd7f, type: 3}
      propertyPath: m_LocalRotation.y
      value: -0.8187829
      objectReference: {fileID: 0}
    - target: {fileID: -4216859302048453862, guid: 3669165c82aa71349bdeecc61a63fd7f, type: 3}
      propertyPath: m_LocalRotation.z
      value: 0.18573001
      objectReference: {fileID: 0}
    - target: {fileID: -4216859302048453862, guid: 3669165c82aa71349bdeecc61a63fd7f, type: 3}
      propertyPath: m_LocalEulerAnglesHint.x
      value: 20.042
      objectReference: {fileID: 0}
    - target: {fileID: -4216859302048453862, guid: 3669165c82aa71349bdeecc61a63fd7f, type: 3}
      propertyPath: m_LocalEulerAnglesHint.y
      value: -111.437
      objectReference: {fileID: 0}
    - target: {fileID: -4216859302048453862, guid: 3669165c82aa71349bdeecc61a63fd7f, type: 3}
      propertyPath: m_LocalEulerAnglesHint.z
      value: 8.762
      objectReference: {fileID: 0}
    - target: {fileID: -927199367670048503, guid: 3669165c82aa71349bdeecc61a63fd7f, type: 3}
      propertyPath: m_Name
      value: bow_angle
      objectReference: {fileID: 0}
    m_RemovedComponents: []
  m_SourcePrefab: {fileID: 100100000, guid: 3669165c82aa71349bdeecc61a63fd7f, type: 3}
